# Blender v3.1.0 Alpha OBJ File: 'lzr_plants_burning.blend'
# www.blender.org
mtllib lzr_plants_burning.mtl
v 0.495000 0.500000 0.495000
v 0.495000 -0.500000 0.495000
v -0.495000 0.500000 0.495000
v -0.495000 -0.500000 0.495000
v 0.495000 0.500000 -0.495000
v 0.495000 -0.500000 -0.495000
v -0.495000 0.500000 -0.495000
v -0.495000 -0.500000 -0.495000
vt 1.000000 0.000000
vt 1.000000 1.000000
vt 0.000000 1.000000
vt 0.000000 0.000000
vt 1.000000 0.000000
vt 1.000000 1.000000
vt 0.000000 1.000000
vt 0.000000 0.000000
vt 1.000000 0.000000
vt 1.000000 1.000000
vt 0.000000 1.000000
vt 0.000000 0.000000
vt 1.000000 0.000000
vt 1.000000 1.000000
vt 0.000000 1.000000
vt 0.000000 0.000000
vn -1.0000 0.0000 0.0000
vn 0.0000 0.0000 -1.0000
vn 0.0000 0.0000 1.0000
vn 1.0000 0.0000 0.0000
vn -0.7071 0.0000 -0.7071
vn -0.7071 0.0000 0.7071
g Fire_Cube_Fire
usemtl Fire
s off
f 4/1/1 3/2/1 7/3/1 8/4/1
f 8/5/2 7/6/2 5/7/2 6/8/2
f 2/9/3 1/10/3 3/11/3 4/12/3
f 6/13/4 5/14/4 1/15/4 2/16/4
g Fire_Cube_Object
usemtl Object
f 4/1/5 3/2/5 5/7/5 6/8/5
f 2/9/6 1/10/6 7/3/6 8/4/6
